1 10 20
100 200 125
201 210 89
900 1000 174
200 300 128
300 400 144
400 500 142
500 600 137
600 700 145
700 800 171
800 900 179
1000 2000 182
1500 2000 180
150 2000 182
580 600 119
583 900 179
993 1111 169
2222 3333 217
4455 5566 210
9090 10000 260
11 22 21
583 823 171
274 733 171
10 111 119
7 10 20
198 367 144
206 306 128
69 420 144
888 999 174
269 1000 179
1000 1555 182
200 202 27
450 900 179
3421 5343 238
43 645 144
543 675 145
453 1134 179
5655 7666 262
342 656 145
4544 5666 236
3453 6765 262
234 564 144
222 999 179
3424 4333 238
6565 10343 260
4343 5333 215
9000 10000 260
10000 10001 180
10000 12000 268
10000 10100 224
14000 15000 271
20000 25000 282
24500 24501 65
1900 2000 175
6969 4200 262
713 769 153
713 898 179
4780 6981 262
281 961 179
713 832 153
515 832 171
9999 10000 92
411 911 179
1 5 8
10101 10901 255
20202 20402 243
21212 23232 269
44444 45555 314
90000 99999 333
11122 22211 279
33 55 113
2313 5454 238
33232 35459 311
1130 5620 238
1005 3060 217
7779 10000 260
65656 66666 268
6543 7654 257
1234 2345 183
4567 9876 262
1029 2938 217
4950 5099 179
4390 9099 262
1231 5094 238
1403 4300 238
2342 6960 262
1230 4311 238
10034 15343 276
43000 46990 314
32000 50000 324
34300 50034 324
1492 9032 262
2334 5543 238
10090 20433 279
66 789 171
351 2015 182
689 2015 182
7000 10000 260
6541 9657 260
5487 6847 262
3210 9510 262
7530 8620 252
3201 6410 262
9461 9965 242
10562 12364 268
4752 6325 262
20565 25960 282
30147 35621 311
40698 45123 288
50000 55179 340
60222 65349 335
70336 75894 325
80645 85623 320
90451 95784 333
100000 101000 341
6 159 122
102000 112000 354
6955 7425 239
31 25 112
95 59 116
32 78 116
2000 1006 182
4871 3215 238
90000 80000 333
7854 2550 262
100500 100900 266
200600 201000 298
200999 220000 386
6852 3214 262
21465 32156 308
78462 35124 351
35126 74125 340
32656 98562 351
32165 45126 324
20015 36200 324
65120 98460 351
70369 85210 351
96120 65214 351
38421 65320 340
96541 81250 333
30302 60504 340
7150 6205 257
9840 6210 260
2050 6014 238
2020 2021 64
1948 2020 175
1546 2002 180
20022 23005 269
7874 3323 262
30323 51024 324
666 999 179
444 222 144
100 202 125
9845 4562 262
1265 9784 262
4120 6523 262
6524 6741 244
78945 98562 333
1234 6541 262
65236 26548 340
741 652 171
652 444 145
10000 20000 279
20000 30000 308
30000 40000 324
40000 50000 314
50000 60000 340
60000 70000 335
70000 80000 351
80000 90000 333
90000 100000 333
100000 110000 354
100023 100456 341
251 123 128
6524 3521 262
1548 3652 217
1894 6524 262
16458 21652 279
35124 45126 324
12345 33333 308
542 684 145
1 16 20
2 49 112
5 68 113
3 292 128
55 678 145
965 3512 217
12035 20145 279
352 685 145
10 50 112
12 24 21
10000 15000 276
15151 16161 253
40 80 116
100 656 145
900 1800 182
2000 4000 238
6523 9845 260
96300 100000 328
9845 10000 242
